^X:\VISUAL_S\UWU\UWU.CPP
X:\VISUAL_S\UWU\DEBUG\VC142.PDB
X:\VISUAL_S\UWU\DEBUG\VC142.IDB
X:\VISUAL_S\UWU\DEBUG\UWU.OBJ
^C:\USERS\KIRIL\DESKTOP\OMG-MASTER\UWU.CPP
C:\USERS\KIRIL\DESKTOP\OMG-MASTER\DEBUG\VC142.PDB
C:\USERS\KIRIL\DESKTOP\OMG-MASTER\DEBUG\VC142.IDB
C:\USERS\KIRIL\DESKTOP\OMG-MASTER\DEBUG\UWU.OBJ
